{
 "chainId" : [2],

 "any": {
  "enabled": true,
  "minFeeRatePerFXT": 3.333
 },

 "rules": [
  {
   "type": 2,
   "subtype": 1,
   
   "maxFeeFQT": "3000000",

   "messagePrunable": {
    "allowed": true,
    "ifAllowedRequire": false
   },
   
   "senders": ["123", "456"],
   
   "ids": ["123", "456"]
  }
 ]
}
